<?xml version="1.0" encoding="WINDOWS-1251"?>
<data>
  <result>
    <RESULT>
      <URL>https://SANDBOX3.payture.com/apim/PayStatus</URL>
      <HEAD />
      <POST />
      <GET>
        <row>
          <NAME>Key</NAME>
          <VALUE>VWMerchantNaskoAdd</VALUE>
        </row>
        <row>
          <NAME>OrderId</NAME>
          <VALUE>29566812</VALUE>
        </row>
      </GET>
    </RESULT>
  </result>
</data>