<?xml version="1.0"?>
<data>
  <request>
    <RequestIp>62.76.103.242</RequestIp>
    <AppId>1320451</AppId>
    <reqName>EPOLICY_CreateAndPrintEPolicy</reqName>
    <params>
      <AgrISN>26651839</AgrISN>
      <Sid>c5feaedc-34c6-488c-be7d-0aa91335ca66</Sid>
    </params>
  </request>
</data>